{
   "result" : {
      "paging" : {
         "total_pages" : 2,
         "items_per_page" : "100",
         "page_number" : "2",
         "total_items" : 118,
         "previous_page_number" : 1,
         "next_page_number" : 3
      },
      "items" : [
         {
            "date_created" : "2024-09-22 17:37:44",
            "is_locked" : 0,
            "name" : "Sunday at  5:00 PM",
            "can_view" : 1,
            "id" : "60500004-7909-11EF-AEA2-DB0274E7C6D9",
            "can_edit" : 1,
            "convention_id" : "32D6B730-365B-11EF-B58A-DCC620F8A28C",
            "start_date" : "2025-04-27 21:00:00",
            "object_type" : "daypart",
            "object_name" : "DayPart",
            "edit_uri" : "/conventions/final-three-con/days/D60A8C38-365B-11EF-B9F5-83E34A6E39C7/parts/60500004-7909-11EF-AEA2-DB0274E7C6D9/edit",
            "conventionday_id" : "D60A8C38-365B-11EF-B9F5-83E34A6E39C7",
            "is_hidden" : 0,
            "date_updated" : "2024-09-22 17:37:44"
         },
         {
            "object_type" : "daypart",
            "edit_uri" : "/conventions/final-three-con/days/D60A8C38-365B-11EF-B9F5-83E34A6E39C7/parts/606D7D3C-7909-11EF-AEA2-DB0274E7C6D9/edit",
            "object_name" : "DayPart",
            "conventionday_id" : "D60A8C38-365B-11EF-B9F5-83E34A6E39C7",
            "is_hidden" : 0,
            "date_updated" : "2024-09-22 17:37:45",
            "is_locked" : 0,
            "name" : "Sunday at  5:30 PM",
            "date_created" : "2024-09-22 17:37:45",
            "can_view" : 1,
            "id" : "606D7D3C-7909-11EF-AEA2-DB0274E7C6D9",
            "can_edit" : 1,
            "convention_id" : "32D6B730-365B-11EF-B58A-DCC620F8A28C",
            "start_date" : "2025-04-27 21:30:00"
         },
         {
            "start_date" : "2025-04-27 22:00:00",
            "convention_id" : "32D6B730-365B-11EF-B58A-DCC620F8A28C",
            "can_edit" : 1,
            "id" : "608E569C-7909-11EF-AEA2-DB0274E7C6D9",
            "can_view" : 1,
            "date_created" : "2024-09-22 17:37:45",
            "is_locked" : 0,
            "name" : "Sunday at  6:00 PM",
            "date_updated" : "2024-09-22 17:37:45",
            "is_hidden" : 0,
            "conventionday_id" : "D60A8C38-365B-11EF-B9F5-83E34A6E39C7",
            "edit_uri" : "/conventions/final-three-con/days/D60A8C38-365B-11EF-B9F5-83E34A6E39C7/parts/608E569C-7909-11EF-AEA2-DB0274E7C6D9/edit",
            "object_name" : "DayPart",
            "object_type" : "daypart"
         },
         {
            "date_updated" : "2024-09-22 17:37:45",
            "is_hidden" : 0,
            "conventionday_id" : "D60A8C38-365B-11EF-B9F5-83E34A6E39C7",
            "object_name" : "DayPart",
            "edit_uri" : "/conventions/final-three-con/days/D60A8C38-365B-11EF-B9F5-83E34A6E39C7/parts/60B040C2-7909-11EF-AEA2-DB0274E7C6D9/edit",
            "object_type" : "daypart",
            "convention_id" : "32D6B730-365B-11EF-B58A-DCC620F8A28C",
            "start_date" : "2025-04-27 22:30:00",
            "can_edit" : 1,
            "id" : "60B040C2-7909-11EF-AEA2-DB0274E7C6D9",
            "can_view" : 1,
            "date_created" : "2024-09-22 17:37:45",
            "is_locked" : 0,
            "name" : "Sunday at  6:30 PM"
         },
         {
            "convention_id" : "32D6B730-365B-11EF-B58A-DCC620F8A28C",
            "start_date" : "2025-04-27 23:00:00",
            "can_edit" : 1,
            "id" : "60D356E8-7909-11EF-AEA2-DB0274E7C6D9",
            "is_locked" : 0,
            "name" : "Sunday at  7:00 PM",
            "date_created" : "2024-09-22 17:37:45",
            "can_view" : 1,
            "is_hidden" : 0,
            "date_updated" : "2024-09-22 17:37:45",
            "conventionday_id" : "D60A8C38-365B-11EF-B9F5-83E34A6E39C7",
            "object_type" : "daypart",
            "object_name" : "DayPart",
            "edit_uri" : "/conventions/final-three-con/days/D60A8C38-365B-11EF-B9F5-83E34A6E39C7/parts/60D356E8-7909-11EF-AEA2-DB0274E7C6D9/edit"
         },
         {
            "id" : "60F92210-7909-11EF-AEA2-DB0274E7C6D9",
            "can_view" : 1,
            "date_created" : "2024-09-22 17:37:46",
            "is_locked" : 0,
            "name" : "Sunday at  7:30 PM",
            "start_date" : "2025-04-27 23:30:00",
            "convention_id" : "32D6B730-365B-11EF-B58A-DCC620F8A28C",
            "can_edit" : 1,
            "object_name" : "DayPart",
            "edit_uri" : "/conventions/final-three-con/days/D60A8C38-365B-11EF-B9F5-83E34A6E39C7/parts/60F92210-7909-11EF-AEA2-DB0274E7C6D9/edit",
            "object_type" : "daypart",
            "date_updated" : "2024-09-22 17:37:46",
            "is_hidden" : 0,
            "conventionday_id" : "D60A8C38-365B-11EF-B9F5-83E34A6E39C7"
         },
         {
            "can_view" : 1,
            "is_locked" : 0,
            "name" : "Sunday at  8:00 PM",
            "date_created" : "2024-09-22 17:37:46",
            "id" : "611C80D4-7909-11EF-AEA2-DB0274E7C6D9",
            "can_edit" : 1,
            "convention_id" : "32D6B730-365B-11EF-B58A-DCC620F8A28C",
            "start_date" : "2025-04-28 00:00:00",
            "object_name" : "DayPart",
            "edit_uri" : "/conventions/final-three-con/days/D60A8C38-365B-11EF-B9F5-83E34A6E39C7/parts/611C80D4-7909-11EF-AEA2-DB0274E7C6D9/edit",
            "object_type" : "daypart",
            "conventionday_id" : "D60A8C38-365B-11EF-B9F5-83E34A6E39C7",
            "date_updated" : "2024-09-22 17:37:46",
            "is_hidden" : 0
         },
         {
            "id" : "614062BA-7909-11EF-AEA2-DB0274E7C6D9",
            "is_locked" : 0,
            "date_created" : "2024-09-22 17:37:46",
            "name" : "Sunday at  8:30 PM",
            "can_view" : 1,
            "start_date" : "2025-04-28 00:30:00",
            "convention_id" : "32D6B730-365B-11EF-B58A-DCC620F8A28C",
            "can_edit" : 1,
            "object_type" : "daypart",
            "edit_uri" : "/conventions/final-three-con/days/D60A8C38-365B-11EF-B9F5-83E34A6E39C7/parts/614062BA-7909-11EF-AEA2-DB0274E7C6D9/edit",
            "object_name" : "DayPart",
            "is_hidden" : 0,
            "date_updated" : "2024-09-22 17:37:46",
            "conventionday_id" : "D60A8C38-365B-11EF-B9F5-83E34A6E39C7"
         },
         {
            "is_hidden" : 0,
            "date_updated" : "2024-09-22 17:37:46",
            "conventionday_id" : "D60A8C38-365B-11EF-B9F5-83E34A6E39C7",
            "object_type" : "daypart",
            "edit_uri" : "/conventions/final-three-con/days/D60A8C38-365B-11EF-B9F5-83E34A6E39C7/parts/61653F90-7909-11EF-AEA2-DB0274E7C6D9/edit",
            "object_name" : "DayPart",
            "start_date" : "2025-04-28 01:00:00",
            "convention_id" : "32D6B730-365B-11EF-B58A-DCC620F8A28C",
            "can_edit" : 1,
            "id" : "61653F90-7909-11EF-AEA2-DB0274E7C6D9",
            "date_created" : "2024-09-22 17:37:46",
            "is_locked" : 0,
            "name" : "Sunday at  9:00 PM",
            "can_view" : 1
         },
         {
            "can_edit" : 1,
            "convention_id" : "32D6B730-365B-11EF-B58A-DCC620F8A28C",
            "start_date" : "2025-04-28 01:30:00",
            "can_view" : 1,
            "is_locked" : 0,
            "date_created" : "2024-09-22 17:37:47",
            "name" : "Sunday at  9:30 PM",
            "id" : "618AB252-7909-11EF-AEA2-DB0274E7C6D9",
            "conventionday_id" : "D60A8C38-365B-11EF-B9F5-83E34A6E39C7",
            "date_updated" : "2024-09-22 17:37:47",
            "is_hidden" : 0,
            "edit_uri" : "/conventions/final-three-con/days/D60A8C38-365B-11EF-B9F5-83E34A6E39C7/parts/618AB252-7909-11EF-AEA2-DB0274E7C6D9/edit",
            "object_name" : "DayPart",
            "object_type" : "daypart"
         },
         {
            "can_edit" : 1,
            "start_date" : "2025-04-28 02:00:00",
            "convention_id" : "32D6B730-365B-11EF-B58A-DCC620F8A28C",
            "is_locked" : 0,
            "date_created" : "2024-09-22 17:37:47",
            "name" : "Sunday at 10:00 PM",
            "can_view" : 1,
            "id" : "61B2229C-7909-11EF-AEA2-DB0274E7C6D9",
            "conventionday_id" : "D60A8C38-365B-11EF-B9F5-83E34A6E39C7",
            "is_hidden" : 0,
            "date_updated" : "2024-09-22 17:37:47",
            "object_type" : "daypart",
            "object_name" : "DayPart",
            "edit_uri" : "/conventions/final-three-con/days/D60A8C38-365B-11EF-B9F5-83E34A6E39C7/parts/61B2229C-7909-11EF-AEA2-DB0274E7C6D9/edit"
         },
         {
            "id" : "61DAF6B8-7909-11EF-AEA2-DB0274E7C6D9",
            "date_created" : "2024-09-22 17:37:47",
            "is_locked" : 0,
            "name" : "Sunday at 10:30 PM",
            "can_view" : 1,
            "start_date" : "2025-04-28 02:30:00",
            "convention_id" : "32D6B730-365B-11EF-B58A-DCC620F8A28C",
            "can_edit" : 1,
            "object_type" : "daypart",
            "object_name" : "DayPart",
            "edit_uri" : "/conventions/final-three-con/days/D60A8C38-365B-11EF-B9F5-83E34A6E39C7/parts/61DAF6B8-7909-11EF-AEA2-DB0274E7C6D9/edit",
            "is_hidden" : 0,
            "date_updated" : "2024-09-22 17:37:47",
            "conventionday_id" : "D60A8C38-365B-11EF-B9F5-83E34A6E39C7"
         },
         {
            "object_type" : "daypart",
            "edit_uri" : "/conventions/final-three-con/days/D60A8C38-365B-11EF-B9F5-83E34A6E39C7/parts/6205E792-7909-11EF-AEA2-DB0274E7C6D9/edit",
            "object_name" : "DayPart",
            "is_hidden" : 0,
            "date_updated" : "2024-09-22 17:37:47",
            "conventionday_id" : "D60A8C38-365B-11EF-B9F5-83E34A6E39C7",
            "id" : "6205E792-7909-11EF-AEA2-DB0274E7C6D9",
            "is_locked" : 0,
            "name" : "Sunday at 11:00 PM",
            "date_created" : "2024-09-22 17:37:47",
            "can_view" : 1,
            "convention_id" : "32D6B730-365B-11EF-B58A-DCC620F8A28C",
            "start_date" : "2025-04-28 03:00:00",
            "can_edit" : 1
         },
         {
            "is_hidden" : 0,
            "date_updated" : "2024-09-22 17:37:48",
            "conventionday_id" : "D60A8C38-365B-11EF-B9F5-83E34A6E39C7",
            "object_type" : "daypart",
            "object_name" : "DayPart",
            "edit_uri" : "/conventions/final-three-con/days/D60A8C38-365B-11EF-B9F5-83E34A6E39C7/parts/62329E4A-7909-11EF-AEA2-DB0274E7C6D9/edit",
            "start_date" : "2025-04-28 03:30:00",
            "convention_id" : "32D6B730-365B-11EF-B58A-DCC620F8A28C",
            "can_edit" : 1,
            "id" : "62329E4A-7909-11EF-AEA2-DB0274E7C6D9",
            "date_created" : "2024-09-22 17:37:48",
            "is_locked" : 0,
            "name" : "Sunday at 11:30 PM",
            "can_view" : 1
         },
         {
            "id" : "625FD9A0-7909-11EF-AEA2-DB0274E7C6D9",
            "can_view" : 1,
            "is_locked" : 0,
            "date_created" : "2024-09-22 17:37:48",
            "name" : "Sunday at 12:00 AM",
            "start_date" : "2025-04-28 04:00:00",
            "convention_id" : "32D6B730-365B-11EF-B58A-DCC620F8A28C",
            "can_edit" : 1,
            "edit_uri" : "/conventions/final-three-con/days/D60A8C38-365B-11EF-B9F5-83E34A6E39C7/parts/625FD9A0-7909-11EF-AEA2-DB0274E7C6D9/edit",
            "object_name" : "DayPart",
            "object_type" : "daypart",
            "date_updated" : "2024-09-22 17:37:48",
            "is_hidden" : 0,
            "conventionday_id" : "D60A8C38-365B-11EF-B9F5-83E34A6E39C7"
         },
         {
            "object_type" : "daypart",
            "edit_uri" : "/conventions/final-three-con/days/D60A8C38-365B-11EF-B9F5-83E34A6E39C7/parts/628E8458-7909-11EF-AEA2-DB0274E7C6D9/edit",
            "object_name" : "DayPart",
            "is_hidden" : 0,
            "date_updated" : "2024-09-22 17:37:48",
            "conventionday_id" : "D60A8C38-365B-11EF-B9F5-83E34A6E39C7",
            "id" : "628E8458-7909-11EF-AEA2-DB0274E7C6D9",
            "is_locked" : 0,
            "date_created" : "2024-09-22 17:37:48",
            "name" : "Sunday at 12:30 AM",
            "can_view" : 1,
            "start_date" : "2025-04-28 04:30:00",
            "convention_id" : "32D6B730-365B-11EF-B58A-DCC620F8A28C",
            "can_edit" : 1
         },
         {
            "conventionday_id" : "D60A8C38-365B-11EF-B9F5-83E34A6E39C7",
            "is_hidden" : 0,
            "date_updated" : "2024-09-22 17:37:49",
            "object_type" : "daypart",
            "edit_uri" : "/conventions/final-three-con/days/D60A8C38-365B-11EF-B9F5-83E34A6E39C7/parts/62BE3450-7909-11EF-AEA2-DB0274E7C6D9/edit",
            "object_name" : "DayPart",
            "can_edit" : 1,
            "convention_id" : "32D6B730-365B-11EF-B58A-DCC620F8A28C",
            "start_date" : "2025-04-28 05:00:00",
            "is_locked" : 0,
            "date_created" : "2024-09-22 17:37:49",
            "name" : "Sunday at  1:00 AM",
            "can_view" : 1,
            "id" : "62BE3450-7909-11EF-AEA2-DB0274E7C6D9"
         },
         {
            "edit_uri" : "/conventions/final-three-con/days/D60A8C38-365B-11EF-B9F5-83E34A6E39C7/parts/62EEDD80-7909-11EF-AEA2-DB0274E7C6D9/edit",
            "object_name" : "DayPart",
            "object_type" : "daypart",
            "conventionday_id" : "D60A8C38-365B-11EF-B9F5-83E34A6E39C7",
            "date_updated" : "2024-09-22 17:37:49",
            "is_hidden" : 0,
            "can_view" : 1,
            "is_locked" : 0,
            "name" : "Sunday at  1:30 AM",
            "date_created" : "2024-09-22 17:37:49",
            "id" : "62EEDD80-7909-11EF-AEA2-DB0274E7C6D9",
            "can_edit" : 1,
            "convention_id" : "32D6B730-365B-11EF-B58A-DCC620F8A28C",
            "start_date" : "2025-04-28 05:30:00"
         }
      ]
   }
}
