{
   "result" : {
      "items" : [
         {
            "object_name" : "Ticket",
            "net_price" : 0,
            "edit_uri" : "/conventions/clocktower-con-2024/tickets/00F1F2E8-ADE4-11EE-A192-EEAA170CFBBE",
            "can_convert" : 0,
            "picked_up" : 0,
            "refund_path" : null,
            "shortname" : "Ticket #520",
            "view_uri" : "/conventions/clocktower-con-2024/tickets/00F1F2E8-ADE4-11EE-A192-EEAA170CFBBE",
            "generic" : 0,
            "amount_refunded" : 0,
            "conversion_item_id" : null,
            "ticket_number" : 520,
            "badge_id" : "39F83C72-23F2-11EE-B5F0-F78B1F1DE0E0",
            "event_id" : "AEE32132-8743-11EE-96A3-DC6FAADE9CD8",
            "sales_tax" : 0,
            "convert_uri" : "/conventions/clocktower-con-2024/tickets/00F1F2E8-ADE4-11EE-A192-EEAA170CFBBE/convert",
            "for_reservation" : 0,
            "id" : "00F1F2E8-ADE4-11EE-A192-EEAA170CFBBE",
            "pick_up_date" : "2024-01-08 05:08:47",
            "collected_date" : "2024-01-08 05:08:47",
            "discount_id" : null,
            "convention_id" : "B333D18E-E3C7-11ED-8487-A047AAD9FEEA",
            "date_updated" : "2024-01-08 05:08:57",
            "print_count" : 0,
            "can_view" : 1,
            "refund_fee_applied" : 0,
            "_relationships" : {
               "add_comment" : "/api/ticket/00F1F2E8-ADE4-11EE-A192-EEAA170CFBBE/add-comment",
               "badge" : "/api/badge/39F83C72-23F2-11EE-B5F0-F78B1F1DE0E0",
               "event" : "/api/event/AEE32132-8743-11EE-96A3-DC6FAADE9CD8",
               "self" : "/api/ticket/00F1F2E8-ADE4-11EE-A192-EEAA170CFBBE",
               "convention" : "/api/convention/B333D18E-E3C7-11ED-8487-A047AAD9FEEA",
               "conventionreceipt" : "/api/conventionreceipt/06AF9E74-ADE4-11EE-BE42-B9633AD02C26"
            },
            "object_type" : "ticket",
            "can_refund" : 0,
            "eventgroup_id" : null,
            "amount_paid_balance" : 0,
            "can_edit" : 1,
            "sales_tax_refunded" : 0,
            "collected" : 0,
            "sales_tax_balance" : 0,
            "conventionreceipt_id" : "06AF9E74-ADE4-11EE-BE42-B9633AD02C26",
            "conventioncart_id" : null,
            "verified" : 1,
            "date_created" : "2024-01-08 05:08:47",
            "retail_price" : 0,
            "amount_paid" : 0,
            "in_tournament" : 0,
            "refund_requested" : 0,
            "can_delete" : 1,
            "badgetype_id" : null
         },
         {
            "can_view" : 1,
            "print_count" : 0,
            "date_updated" : "2024-01-07 18:09:16",
            "convention_id" : "B333D18E-E3C7-11ED-8487-A047AAD9FEEA",
            "_relationships" : {
               "event" : "/api/event/81285754-868E-11EE-85EB-EC860E31F89B",
               "self" : "/api/ticket/011EC68C-AD86-11EE-A56A-C23B8DE8871C",
               "badge" : "/api/badge/03E48D48-23F2-11EE-B784-86A023D56B82",
               "add_comment" : "/api/ticket/011EC68C-AD86-11EE-A56A-C23B8DE8871C/add-comment",
               "conventionreceipt" : "/api/conventionreceipt/DE90F58E-AD87-11EE-A56A-99A1B5699555",
               "convention" : "/api/convention/B333D18E-E3C7-11ED-8487-A047AAD9FEEA"
            },
            "can_refund" : 0,
            "object_type" : "ticket",
            "eventgroup_id" : null,
            "amount_paid_balance" : 0,
            "can_edit" : 1,
            "refund_fee_applied" : 0,
            "sales_tax_balance" : 0,
            "conventionreceipt_id" : "DE90F58E-AD87-11EE-A56A-99A1B5699555",
            "sales_tax_refunded" : 0,
            "collected" : 0,
            "in_tournament" : 0,
            "refund_requested" : 0,
            "can_delete" : 1,
            "badgetype_id" : null,
            "conventioncart_id" : null,
            "verified" : 1,
            "retail_price" : 0,
            "date_created" : "2024-01-07 17:55:55",
            "amount_paid" : 0,
            "edit_uri" : "/conventions/clocktower-con-2024/tickets/011EC68C-AD86-11EE-A56A-C23B8DE8871C",
            "can_convert" : 0,
            "picked_up" : 0,
            "object_name" : "Ticket",
            "net_price" : 0,
            "refund_path" : null,
            "shortname" : "Ticket #355",
            "ticket_number" : 355,
            "conversion_item_id" : null,
            "generic" : 0,
            "view_uri" : "/conventions/clocktower-con-2024/tickets/011EC68C-AD86-11EE-A56A-C23B8DE8871C",
            "amount_refunded" : 0,
            "pick_up_date" : "2024-01-07 17:55:55",
            "collected_date" : "2024-01-07 17:55:55",
            "discount_id" : null,
            "badge_id" : "03E48D48-23F2-11EE-B784-86A023D56B82",
            "event_id" : "81285754-868E-11EE-85EB-EC860E31F89B",
            "sales_tax" : 0,
            "convert_uri" : "/conventions/clocktower-con-2024/tickets/011EC68C-AD86-11EE-A56A-C23B8DE8871C/convert",
            "for_reservation" : 0,
            "id" : "011EC68C-AD86-11EE-A56A-C23B8DE8871C"
         },
         {
            "shortname" : "Ticket #90",
            "refund_path" : null,
            "net_price" : 0,
            "object_name" : "Ticket",
            "picked_up" : 0,
            "can_convert" : 0,
            "edit_uri" : "/conventions/clocktower-con-2024/tickets/01C2FC0E-AD7F-11EE-AC9D-8D02B3183881",
            "id" : "01C2FC0E-AD7F-11EE-AC9D-8D02B3183881",
            "for_reservation" : 0,
            "convert_uri" : "/conventions/clocktower-con-2024/tickets/01C2FC0E-AD7F-11EE-AC9D-8D02B3183881/convert",
            "sales_tax" : 0,
            "event_id" : "A49CD736-86E4-11EE-A157-F28E972D05CA",
            "badge_id" : "2D621EC4-23F2-11EE-B0B7-B0F8DCEF7BC1",
            "discount_id" : null,
            "collected_date" : "2024-01-07 17:05:49",
            "pick_up_date" : "2024-01-07 17:05:49",
            "view_uri" : "/conventions/clocktower-con-2024/tickets/01C2FC0E-AD7F-11EE-AC9D-8D02B3183881",
            "generic" : 0,
            "amount_refunded" : 0,
            "conversion_item_id" : null,
            "ticket_number" : 90,
            "refund_fee_applied" : 0,
            "can_edit" : 1,
            "amount_paid_balance" : 0,
            "object_type" : "ticket",
            "can_refund" : 0,
            "eventgroup_id" : null,
            "_relationships" : {
               "badge" : "/api/badge/2D621EC4-23F2-11EE-B0B7-B0F8DCEF7BC1",
               "add_comment" : "/api/ticket/01C2FC0E-AD7F-11EE-AC9D-8D02B3183881/add-comment",
               "self" : "/api/ticket/01C2FC0E-AD7F-11EE-AC9D-8D02B3183881",
               "event" : "/api/event/A49CD736-86E4-11EE-A157-F28E972D05CA",
               "convention" : "/api/convention/B333D18E-E3C7-11ED-8487-A047AAD9FEEA",
               "conventionreceipt" : "/api/conventionreceipt/377F240C-AD80-11EE-AC9D-A6BF04434DE5"
            },
            "convention_id" : "B333D18E-E3C7-11ED-8487-A047AAD9FEEA",
            "date_updated" : "2024-01-07 17:14:29",
            "can_view" : 1,
            "print_count" : 0,
            "amount_paid" : 0,
            "date_created" : "2024-01-07 17:05:49",
            "retail_price" : 0,
            "verified" : 1,
            "conventioncart_id" : null,
            "badgetype_id" : null,
            "can_delete" : 1,
            "in_tournament" : 0,
            "refund_requested" : 0,
            "collected" : 0,
            "sales_tax_refunded" : 0,
            "conventionreceipt_id" : "377F240C-AD80-11EE-AC9D-A6BF04434DE5",
            "sales_tax_balance" : 0
         },
         {
            "verified" : 1,
            "conventioncart_id" : null,
            "amount_paid" : 0,
            "date_created" : "2024-01-07 17:12:59",
            "retail_price" : 0,
            "refund_requested" : 0,
            "in_tournament" : 0,
            "badgetype_id" : null,
            "can_delete" : 1,
            "sales_tax_refunded" : 0,
            "collected" : 0,
            "sales_tax_balance" : 0,
            "conventionreceipt_id" : "54C538F8-AD80-11EE-A56A-98533E33C953",
            "refund_fee_applied" : 0,
            "eventgroup_id" : null,
            "can_refund" : 0,
            "object_type" : "ticket",
            "_relationships" : {
               "self" : "/api/ticket/01D97DD4-AD80-11EE-8E73-D6CD22773D12",
               "event" : "/api/event/7C9B7A38-88DF-11EE-AB09-86073521E4D9",
               "badge" : "/api/badge/B53A6F42-23F5-11EE-A286-A3FF34542CF6",
               "add_comment" : "/api/ticket/01D97DD4-AD80-11EE-8E73-D6CD22773D12/add-comment",
               "conventionreceipt" : "/api/conventionreceipt/54C538F8-AD80-11EE-A56A-98533E33C953",
               "convention" : "/api/convention/B333D18E-E3C7-11ED-8487-A047AAD9FEEA"
            },
            "can_edit" : 1,
            "amount_paid_balance" : 0,
            "date_updated" : "2024-01-07 17:15:18",
            "convention_id" : "B333D18E-E3C7-11ED-8487-A047AAD9FEEA",
            "print_count" : 0,
            "can_view" : 1,
            "sales_tax" : 0,
            "event_id" : "7C9B7A38-88DF-11EE-AB09-86073521E4D9",
            "badge_id" : "B53A6F42-23F5-11EE-A286-A3FF34542CF6",
            "for_reservation" : 0,
            "id" : "01D97DD4-AD80-11EE-8E73-D6CD22773D12",
            "convert_uri" : "/conventions/clocktower-con-2024/tickets/01D97DD4-AD80-11EE-8E73-D6CD22773D12/convert",
            "collected_date" : "2024-01-07 17:12:59",
            "pick_up_date" : "2024-01-07 17:12:59",
            "discount_id" : null,
            "view_uri" : "/conventions/clocktower-con-2024/tickets/01D97DD4-AD80-11EE-8E73-D6CD22773D12",
            "amount_refunded" : 0,
            "generic" : 0,
            "conversion_item_id" : null,
            "ticket_number" : 143,
            "shortname" : "Ticket #143",
            "refund_path" : null,
            "object_name" : "Ticket",
            "net_price" : 0,
            "can_convert" : 0,
            "edit_uri" : "/conventions/clocktower-con-2024/tickets/01D97DD4-AD80-11EE-8E73-D6CD22773D12",
            "picked_up" : 0
         },
         {
            "conventionreceipt_id" : "094105A8-AD83-11EE-8E73-ED670FDF61D8",
            "sales_tax_balance" : 0,
            "collected" : 0,
            "sales_tax_refunded" : 0,
            "badgetype_id" : null,
            "can_delete" : 1,
            "refund_requested" : 0,
            "in_tournament" : 0,
            "amount_paid" : 0,
            "retail_price" : 0,
            "date_created" : "2024-01-07 17:34:28",
            "verified" : 1,
            "conventioncart_id" : null,
            "can_view" : 1,
            "print_count" : 0,
            "date_updated" : "2024-01-07 17:34:40",
            "convention_id" : "B333D18E-E3C7-11ED-8487-A047AAD9FEEA",
            "can_edit" : 1,
            "amount_paid_balance" : 0,
            "can_refund" : 0,
            "object_type" : "ticket",
            "eventgroup_id" : null,
            "_relationships" : {
               "conventionreceipt" : "/api/conventionreceipt/094105A8-AD83-11EE-8E73-ED670FDF61D8",
               "convention" : "/api/convention/B333D18E-E3C7-11ED-8487-A047AAD9FEEA",
               "self" : "/api/ticket/022BD20C-AD83-11EE-8E73-DFBA425E5169",
               "event" : "/api/event/E45244BC-873C-11EE-A157-DAADAE84214F",
               "add_comment" : "/api/ticket/022BD20C-AD83-11EE-8E73-DFBA425E5169/add-comment",
               "badge" : "/api/badge/64A585F6-23F2-11EE-AACE-99C999F43FF3"
            },
            "refund_fee_applied" : 0,
            "conversion_item_id" : null,
            "ticket_number" : 268,
            "view_uri" : "/conventions/clocktower-con-2024/tickets/022BD20C-AD83-11EE-8E73-DFBA425E5169",
            "amount_refunded" : 0,
            "generic" : 0,
            "discount_id" : null,
            "pick_up_date" : "2024-01-07 17:34:28",
            "collected_date" : "2024-01-07 17:34:28",
            "convert_uri" : "/conventions/clocktower-con-2024/tickets/022BD20C-AD83-11EE-8E73-DFBA425E5169/convert",
            "for_reservation" : 0,
            "id" : "022BD20C-AD83-11EE-8E73-DFBA425E5169",
            "event_id" : "E45244BC-873C-11EE-A157-DAADAE84214F",
            "sales_tax" : 0,
            "badge_id" : "64A585F6-23F2-11EE-AACE-99C999F43FF3",
            "picked_up" : 0,
            "can_convert" : 0,
            "edit_uri" : "/conventions/clocktower-con-2024/tickets/022BD20C-AD83-11EE-8E73-DFBA425E5169",
            "net_price" : 0,
            "object_name" : "Ticket",
            "shortname" : "Ticket #268",
            "refund_path" : null
         },
         {
            "date_created" : "2024-01-07 17:13:00",
            "retail_price" : 0,
            "amount_paid" : 0,
            "conventioncart_id" : null,
            "verified" : 1,
            "can_delete" : 1,
            "badgetype_id" : null,
            "in_tournament" : 0,
            "refund_requested" : 0,
            "collected" : 0,
            "sales_tax_refunded" : 0,
            "conventionreceipt_id" : "8BCED49E-AD80-11EE-8E73-D72589501BC7",
            "sales_tax_balance" : 0,
            "refund_fee_applied" : 0,
            "amount_paid_balance" : 0,
            "can_edit" : 1,
            "_relationships" : {
               "badge" : "/api/badge/FAD9DECC-276D-11EE-A300-96438EF88E97",
               "add_comment" : "/api/ticket/02397DD8-AD80-11EE-A56A-B4EB05A97868/add-comment",
               "event" : "/api/event/8DEFCA62-868E-11EE-85EB-AED7E07D0D51",
               "self" : "/api/ticket/02397DD8-AD80-11EE-A56A-B4EB05A97868",
               "convention" : "/api/convention/B333D18E-E3C7-11ED-8487-A047AAD9FEEA",
               "conventionreceipt" : "/api/conventionreceipt/8BCED49E-AD80-11EE-8E73-D72589501BC7"
            },
            "can_refund" : 0,
            "object_type" : "ticket",
            "eventgroup_id" : null,
            "convention_id" : "B333D18E-E3C7-11ED-8487-A047AAD9FEEA",
            "date_updated" : "2024-01-07 17:16:51",
            "can_view" : 1,
            "print_count" : 0,
            "convert_uri" : "/conventions/clocktower-con-2024/tickets/02397DD8-AD80-11EE-A56A-B4EB05A97868/convert",
            "for_reservation" : 0,
            "id" : "02397DD8-AD80-11EE-A56A-B4EB05A97868",
            "badge_id" : "FAD9DECC-276D-11EE-A300-96438EF88E97",
            "sales_tax" : 0,
            "event_id" : "8DEFCA62-868E-11EE-85EB-AED7E07D0D51",
            "discount_id" : null,
            "collected_date" : "2024-01-07 17:13:00",
            "pick_up_date" : "2024-01-07 17:13:00",
            "amount_refunded" : 0,
            "view_uri" : "/conventions/clocktower-con-2024/tickets/02397DD8-AD80-11EE-A56A-B4EB05A97868",
            "generic" : 0,
            "conversion_item_id" : null,
            "ticket_number" : 144,
            "refund_path" : null,
            "shortname" : "Ticket #144",
            "net_price" : 0,
            "object_name" : "Ticket",
            "picked_up" : 0,
            "edit_uri" : "/conventions/clocktower-con-2024/tickets/02397DD8-AD80-11EE-A56A-B4EB05A97868",
            "can_convert" : 0
         },
         {
            "sales_tax_refunded" : 0,
            "collected" : 0,
            "sales_tax_balance" : 0,
            "conventionreceipt_id" : "24679970-AE3A-11EE-A192-824EE1A71A45",
            "verified" : 1,
            "conventioncart_id" : null,
            "amount_paid" : 0,
            "date_created" : "2024-01-08 15:17:17",
            "retail_price" : 0,
            "refund_requested" : 0,
            "in_tournament" : 0,
            "badgetype_id" : null,
            "can_delete" : 1,
            "convention_id" : "B333D18E-E3C7-11ED-8487-A047AAD9FEEA",
            "date_updated" : "2024-01-08 15:25:23",
            "print_count" : 0,
            "can_view" : 1,
            "refund_fee_applied" : 0,
            "object_type" : "ticket",
            "can_refund" : 0,
            "eventgroup_id" : null,
            "_relationships" : {
               "conventionreceipt" : "/api/conventionreceipt/24679970-AE3A-11EE-A192-824EE1A71A45",
               "convention" : "/api/convention/B333D18E-E3C7-11ED-8487-A047AAD9FEEA",
               "self" : "/api/ticket/02CF02E0-AE39-11EE-BE42-B87966F32A01",
               "event" : "/api/event/7C823D26-86EA-11EE-A157-9165FA7D8F59",
               "badge" : "/api/badge/DE5911EC-23F2-11EE-814D-A9DA1C8355C1",
               "add_comment" : "/api/ticket/02CF02E0-AE39-11EE-BE42-B87966F32A01/add-comment"
            },
            "can_edit" : 1,
            "amount_paid_balance" : 0,
            "generic" : 0,
            "view_uri" : "/conventions/clocktower-con-2024/tickets/02CF02E0-AE39-11EE-BE42-B87966F32A01",
            "amount_refunded" : 0,
            "ticket_number" : 547,
            "conversion_item_id" : null,
            "event_id" : "7C823D26-86EA-11EE-A157-9165FA7D8F59",
            "sales_tax" : 0,
            "badge_id" : "DE5911EC-23F2-11EE-814D-A9DA1C8355C1",
            "convert_uri" : "/conventions/clocktower-con-2024/tickets/02CF02E0-AE39-11EE-BE42-B87966F32A01/convert",
            "for_reservation" : 0,
            "id" : "02CF02E0-AE39-11EE-BE42-B87966F32A01",
            "pick_up_date" : "2024-01-08 15:17:17",
            "collected_date" : "2024-01-08 15:17:17",
            "discount_id" : null,
            "object_name" : "Ticket",
            "net_price" : 0,
            "can_convert" : 0,
            "edit_uri" : "/conventions/clocktower-con-2024/tickets/02CF02E0-AE39-11EE-BE42-B87966F32A01",
            "picked_up" : 0,
            "shortname" : "Ticket #547",
            "refund_path" : null
         },
         {
            "retail_price" : 0,
            "date_created" : "2024-01-07 17:05:52",
            "amount_paid" : 0,
            "conventioncart_id" : null,
            "verified" : 1,
            "can_delete" : 1,
            "badgetype_id" : null,
            "in_tournament" : 0,
            "refund_requested" : 0,
            "collected" : 0,
            "sales_tax_refunded" : 0,
            "conventionreceipt_id" : "1D955F80-AD7F-11EE-AC9D-B7F71E3EE198",
            "sales_tax_balance" : 0,
            "refund_fee_applied" : 0,
            "amount_paid_balance" : 0,
            "can_edit" : 1,
            "_relationships" : {
               "convention" : "/api/convention/B333D18E-E3C7-11ED-8487-A047AAD9FEEA",
               "conventionreceipt" : "/api/conventionreceipt/1D955F80-AD7F-11EE-AC9D-B7F71E3EE198",
               "add_comment" : "/api/ticket/034A1BFC-AD7F-11EE-A56A-9DC0BF9B170B/add-comment",
               "badge" : "/api/badge/1BABF6AA-23F2-11EE-A937-AB32A50AEA48",
               "event" : "/api/event/FA6A8DAA-8740-11EE-96A3-BC0559B274AF",
               "self" : "/api/ticket/034A1BFC-AD7F-11EE-A56A-9DC0BF9B170B"
            },
            "can_refund" : 0,
            "eventgroup_id" : null,
            "object_type" : "ticket",
            "date_updated" : "2024-01-07 17:06:36",
            "convention_id" : "B333D18E-E3C7-11ED-8487-A047AAD9FEEA",
            "print_count" : 0,
            "can_view" : 1,
            "convert_uri" : "/conventions/clocktower-con-2024/tickets/034A1BFC-AD7F-11EE-A56A-9DC0BF9B170B/convert",
            "for_reservation" : 0,
            "id" : "034A1BFC-AD7F-11EE-A56A-9DC0BF9B170B",
            "badge_id" : "1BABF6AA-23F2-11EE-A937-AB32A50AEA48",
            "sales_tax" : 0,
            "event_id" : "FA6A8DAA-8740-11EE-96A3-BC0559B274AF",
            "discount_id" : null,
            "pick_up_date" : "2024-01-07 17:05:52",
            "collected_date" : "2024-01-07 17:05:52",
            "generic" : 0,
            "view_uri" : "/conventions/clocktower-con-2024/tickets/034A1BFC-AD7F-11EE-A56A-9DC0BF9B170B",
            "amount_refunded" : 0,
            "conversion_item_id" : null,
            "ticket_number" : 91,
            "refund_path" : null,
            "shortname" : "Ticket #91",
            "net_price" : 0,
            "object_name" : "Ticket",
            "picked_up" : 0,
            "edit_uri" : "/conventions/clocktower-con-2024/tickets/034A1BFC-AD7F-11EE-A56A-9DC0BF9B170B",
            "can_convert" : 0
         },
         {
            "picked_up" : 0,
            "edit_uri" : "/conventions/clocktower-con-2024/tickets/045FBE60-AE43-11EE-A85B-B804B85F3B40",
            "can_convert" : 0,
            "net_price" : 0,
            "object_name" : "Ticket",
            "refund_path" : null,
            "shortname" : "Ticket #568",
            "ticket_number" : 568,
            "conversion_item_id" : null,
            "amount_refunded" : 0,
            "view_uri" : "/conventions/clocktower-con-2024/tickets/045FBE60-AE43-11EE-A85B-B804B85F3B40",
            "generic" : 0,
            "discount_id" : null,
            "collected_date" : "2024-01-08 16:28:55",
            "pick_up_date" : "2024-01-08 16:28:55",
            "convert_uri" : "/conventions/clocktower-con-2024/tickets/045FBE60-AE43-11EE-A85B-B804B85F3B40/convert",
            "for_reservation" : 0,
            "id" : "045FBE60-AE43-11EE-A85B-B804B85F3B40",
            "badge_id" : "C95FF732-30C3-11EE-9D33-A3C82447A69C",
            "sales_tax" : 0,
            "event_id" : "ED014094-8D8C-11EE-A40C-F6620B75D5DE",
            "print_count" : 0,
            "can_view" : 1,
            "convention_id" : "B333D18E-E3C7-11ED-8487-A047AAD9FEEA",
            "date_updated" : "2024-01-08 16:32:37",
            "amount_paid_balance" : 0,
            "can_edit" : 1,
            "_relationships" : {
               "convention" : "/api/convention/B333D18E-E3C7-11ED-8487-A047AAD9FEEA",
               "conventionreceipt" : "/api/conventionreceipt/885E14A0-AE43-11EE-BE42-F3799D4D7395",
               "add_comment" : "/api/ticket/045FBE60-AE43-11EE-A85B-B804B85F3B40/add-comment",
               "badge" : "/api/badge/C95FF732-30C3-11EE-9D33-A3C82447A69C",
               "self" : "/api/ticket/045FBE60-AE43-11EE-A85B-B804B85F3B40",
               "event" : "/api/event/ED014094-8D8C-11EE-A40C-F6620B75D5DE"
            },
            "object_type" : "ticket",
            "can_refund" : 0,
            "eventgroup_id" : null,
            "refund_fee_applied" : 0,
            "conventionreceipt_id" : "885E14A0-AE43-11EE-BE42-F3799D4D7395",
            "sales_tax_balance" : 0,
            "collected" : 0,
            "sales_tax_refunded" : 0,
            "can_delete" : 1,
            "badgetype_id" : null,
            "in_tournament" : 0,
            "refund_requested" : 0,
            "retail_price" : 0,
            "date_created" : "2024-01-08 16:28:55",
            "amount_paid" : 0,
            "conventioncart_id" : null,
            "verified" : 1
         },
         {
            "print_count" : 0,
            "can_view" : 1,
            "convention_id" : "B333D18E-E3C7-11ED-8487-A047AAD9FEEA",
            "date_updated" : "2024-01-07 00:52:39",
            "amount_paid_balance" : 0,
            "can_edit" : 1,
            "_relationships" : {
               "convention" : "/api/convention/B333D18E-E3C7-11ED-8487-A047AAD9FEEA",
               "conventionreceipt" : "/api/conventionreceipt/0E63CC46-ACF7-11EE-9C55-9035F1DA2D47",
               "badge" : "/api/badge/D6E83270-2E25-11EE-8A32-915F291369CD",
               "add_comment" : "/api/ticket/05BDDAD2-ACF7-11EE-8347-F30A864939A8/add-comment",
               "self" : "/api/ticket/05BDDAD2-ACF7-11EE-8347-F30A864939A8",
               "event" : "/api/event/9215511A-86E4-11EE-A157-C85D940BDCDB"
            },
            "can_refund" : 0,
            "object_type" : "ticket",
            "eventgroup_id" : null,
            "refund_fee_applied" : 0,
            "conventionreceipt_id" : "0E63CC46-ACF7-11EE-9C55-9035F1DA2D47",
            "sales_tax_balance" : 0,
            "collected" : 0,
            "sales_tax_refunded" : 0,
            "can_delete" : 1,
            "badgetype_id" : null,
            "refund_requested" : 0,
            "in_tournament" : 0,
            "retail_price" : 0,
            "date_created" : "2024-01-07 00:52:24",
            "amount_paid" : 0,
            "conventioncart_id" : null,
            "verified" : 1,
            "picked_up" : 0,
            "edit_uri" : "/conventions/clocktower-con-2024/tickets/05BDDAD2-ACF7-11EE-8347-F30A864939A8",
            "can_convert" : 0,
            "net_price" : 0,
            "object_name" : "Ticket",
            "refund_path" : null,
            "shortname" : "Ticket #8",
            "conversion_item_id" : null,
            "ticket_number" : 8,
            "generic" : 0,
            "view_uri" : "/conventions/clocktower-con-2024/tickets/05BDDAD2-ACF7-11EE-8347-F30A864939A8",
            "amount_refunded" : 0,
            "discount_id" : null,
            "collected_date" : "2024-01-07 00:52:24",
            "pick_up_date" : "2024-01-07 00:52:24",
            "id" : "05BDDAD2-ACF7-11EE-8347-F30A864939A8",
            "for_reservation" : 0,
            "convert_uri" : "/conventions/clocktower-con-2024/tickets/05BDDAD2-ACF7-11EE-8347-F30A864939A8/convert",
            "badge_id" : "D6E83270-2E25-11EE-8A32-915F291369CD",
            "sales_tax" : 0,
            "event_id" : "9215511A-86E4-11EE-A157-C85D940BDCDB"
         }
      ],
      "paging" : {
         "page_number" : 1,
         "items_per_page" : "10",
         "next_page_number" : 2,
         "total_items" : 514,
         "total_pages" : 52,
         "previous_page_number" : 1
      }
   }
}
